<?xml version="1.0" encoding="UTF-8" standalone="no" ?>
<COLLADA xmlns="http://www.collada.org/2005/11/COLLADASchema" version="1.4.1">
    <asset>
        <contributor>
            <authoring_tool>SketchUp 22.0.0</authoring_tool>
        </contributor>
        <created>2022-02-02T23:52:43Z</created>
        <modified>2022-02-02T23:52:43Z</modified>
        <unit meter="0.0254" name="inch" />
        <up_axis>Z_UP</up_axis>
    </asset>
    <library_cameras>
        <camera id="ID1" name="skp_camera_Last_Saved_SketchUp_View">
            <optics>
                <technique_common>
                    <perspective>
                        <yfov>35</yfov>
                        <aspect_ratio>0</aspect_ratio>
                        <znear>1</znear>
                        <zfar>1000</zfar>
                    </perspective>
                </technique_common>
            </optics>
        </camera>
    </library_cameras>
    <library_visual_scenes>
        <visual_scene id="ID2">
            <node name="SketchUp">
                <instance_geometry url="#ID3">
                    <bind_material>
                        <technique_common>
                            <instance_material symbol="Material2" target="#ID5">
                                <bind_vertex_input semantic="UVSET0" input_semantic="TEXCOORD" input_set="0" />
                            </instance_material>
                        </technique_common>
                    </bind_material>
                </instance_geometry>
                <instance_geometry url="#ID11">
                    <bind_material>
                        <technique_common>
                            <instance_material symbol="Material2" target="#ID12">
                                <bind_vertex_input semantic="UVSET0" input_semantic="TEXCOORD" input_set="0" />
                            </instance_material>
                        </technique_common>
                    </bind_material>
                </instance_geometry>
                <instance_geometry url="#ID19">
                    <bind_material>
                        <technique_common>
                            <instance_material symbol="Material2" target="#ID20">
                                <bind_vertex_input semantic="UVSET0" input_semantic="TEXCOORD" input_set="0" />
                            </instance_material>
                        </technique_common>
                    </bind_material>
                </instance_geometry>
                <instance_geometry url="#ID27">
                    <bind_material>
                        <technique_common>
                            <instance_material symbol="Material2" target="#ID28">
                                <bind_vertex_input semantic="UVSET0" input_semantic="TEXCOORD" input_set="0" />
                            </instance_material>
                        </technique_common>
                    </bind_material>
                </instance_geometry>
                <instance_geometry url="#ID35">
                    <bind_material>
                        <technique_common>
                            <instance_material symbol="Material2" target="#ID5">
                                <bind_vertex_input semantic="UVSET0" input_semantic="TEXCOORD" input_set="0" />
                            </instance_material>
                        </technique_common>
                    </bind_material>
                </instance_geometry>
                <instance_geometry url="#ID41">
                    <bind_material>
                        <technique_common>
                            <instance_material symbol="Material2" target="#ID42">
                                <bind_vertex_input semantic="UVSET0" input_semantic="TEXCOORD" input_set="0" />
                            </instance_material>
                        </technique_common>
                    </bind_material>
                </instance_geometry>
                <instance_geometry url="#ID49">
                    <bind_material>
                        <technique_common>
                            <instance_material symbol="Material2" target="#ID20">
                                <bind_vertex_input semantic="UVSET0" input_semantic="TEXCOORD" input_set="0" />
                            </instance_material>
                        </technique_common>
                    </bind_material>
                </instance_geometry>
                <instance_geometry url="#ID55">
                    <bind_material>
                        <technique_common>
                            <instance_material symbol="Material2" target="#ID56">
                                <bind_vertex_input semantic="UVSET0" input_semantic="TEXCOORD" input_set="0" />
                            </instance_material>
                        </technique_common>
                    </bind_material>
                </instance_geometry>
                <node name="skp_camera_Last_Saved_SketchUp_View">
                    <matrix>0.9998921 0.0119524 -0.008539663 110.3129 -0.01468965 0.8135738 -0.5812761 -132.759 -2.94903e-17 0.5813388 0.8136616 190.605 0 0 0 1</matrix>
                    <instance_camera url="#ID1" />
                </node>
            </node>
        </visual_scene>
    </library_visual_scenes>
    <library_geometries>
        <geometry id="ID3">
            <mesh>
                <source id="ID6">
                    <float_array id="ID9" count="105">59.05512 -59.05512 1.968504 -59.05512 -59.05512 0 59.05512 -59.05512 0 -59.05512 -59.05512 1.968504 59.05512 59.05512 0 -59.05512 -59.05512 0 -59.05512 59.05512 0 59.05512 -59.05512 0 59.05512 59.05512 0 59.05512 -59.05512 1.968504 59.05512 -59.05512 0 59.05512 -43.30709 1.968504 59.05512 2.842171e-14 1.968504 59.05512 43.30709 1.968504 59.05512 59.05512 1.968504 177.1654 -59.05512 1.968504 177.1654 -59.05512 0 -59.05512 59.05512 1.968504 -59.05512 -59.05512 0 -59.05512 -59.05512 1.968504 -59.05512 59.05512 0 -59.05512 59.05512 1.968504 59.05512 59.05512 0 -59.05512 59.05512 0 59.05512 59.05512 1.968504 177.1654 59.05512 0 177.1654 -59.05512 0 59.05512 59.05512 1.968504 177.1654 59.05512 0 59.05512 59.05512 0 177.1654 59.05512 1.968504 177.1654 59.05512 0 177.1654 -59.05512 1.968504 177.1654 -59.05512 0 177.1654 59.05512 1.968504</float_array>
                    <technique_common>
                        <accessor count="35" source="#ID9" stride="3">
                            <param name="X" type="float" />
                            <param name="Y" type="float" />
                            <param name="Z" type="float" />
                        </accessor>
                    </technique_common>
                </source>
                <source id="ID7">
                    <float_array id="ID10" count="105">0 -1 0 0 -1 0 0 -1 0 0 -1 0 0 0 -1 0 0 -1 0 0 -1 0 0 -1 1 -0 -0 1 -0 -0 1 -0 -0 1 -0 -0 1 -0 -0 1 -0 -0 1 -0 -0 0 -1 0 0 -1 0 -1 0 0 -1 0 0 -1 0 0 -1 0 0 2.550835e-16 1 -2.062604e-15 2.550835e-16 1 -2.062604e-15 2.550835e-16 1 -2.062604e-15 2.550835e-16 1 -2.062604e-15 0 0 -1 0 0 -1 -2.47835e-16 1 -5.889148e-16 -2.47835e-16 1 -5.889148e-16 -2.47835e-16 1 -5.889148e-16 -2.47835e-16 1 -5.889148e-16 1 -0 -0 1 -0 -0 1 -0 -0 1 -0 -0</float_array>
                    <technique_common>
                        <accessor count="35" source="#ID10" stride="3">
                            <param name="X" type="float" />
                            <param name="Y" type="float" />
                            <param name="Z" type="float" />
                        </accessor>
                    </technique_common>
                </source>
                <vertices id="ID8">
                    <input semantic="POSITION" source="#ID6" />
                    <input semantic="NORMAL" source="#ID7" />
                </vertices>
                <triangles count="21" material="Material2">
                    <input offset="0" semantic="VERTEX" source="#ID8" />
                    <p>0 1 2 1 0 3 4 5 6 5 4 7 8 9 10 9 8 11 11 8 12 12 8 13 13 8 14 15 2 16 2 15 0 17 18 19 18 17 20 21 22 23 22 21 24 25 7 4 7 25 26 27 28 29 28 27 30 31 32 33 32 31 34</p>
                </triangles>
            </mesh>
        </geometry>
        <geometry id="ID11">
            <mesh>
                <source id="ID14">
                    <float_array id="ID17" count="81">-59.05512 -59.05512 1.968504 -43.30709 -43.30709 1.968504 -59.05512 59.05512 1.968504 59.05512 -59.05512 1.968504 -29.52756 -43.30709 1.968504 0 -43.30709 1.968504 29.52756 -43.30709 1.968504 43.30709 -43.30709 1.968504 59.05512 -43.30709 1.968504 -43.30709 43.30709 1.968504 59.05512 59.05512 1.968504 -43.30709 2.604544e-14 1.968504 -29.52756 43.30709 1.968504 5.118018e-15 43.30709 1.968504 29.52756 43.30709 1.968504 43.30709 43.30709 1.968504 59.05512 43.30709 1.968504 177.1654 -59.05512 1.968504 59.05512 -43.30709 1.968504 59.05512 -59.05512 1.968504 74.80315 -43.30709 1.968504 161.4173 -43.30709 1.968504 161.4173 43.30709 1.968504 74.80315 43.30709 1.968504 59.05512 59.05512 1.968504 59.05512 43.30709 1.968504 177.1654 59.05512 1.968504</float_array>
                    <technique_common>
                        <accessor count="27" source="#ID17" stride="3">
                            <param name="X" type="float" />
                            <param name="Y" type="float" />
                            <param name="Z" type="float" />
                        </accessor>
                    </technique_common>
                </source>
                <source id="ID15">
                    <float_array id="ID18" count="81">-5.775326e-18 1.582634e-18 1 -5.775326e-18 1.582634e-18 1 -5.775326e-18 1.582634e-18 1 -5.775326e-18 1.582634e-18 1 -5.775326e-18 1.582634e-18 1 -5.775326e-18 1.582634e-18 1 -5.775326e-18 1.582634e-18 1 -5.775326e-18 1.582634e-18 1 -5.775326e-18 1.582634e-18 1 -5.775326e-18 1.582634e-18 1 -5.775326e-18 1.582634e-18 1 -5.775326e-18 1.582634e-18 1 -5.775326e-18 1.582634e-18 1 -5.775326e-18 1.582634e-18 1 -5.775326e-18 1.582634e-18 1 -5.775326e-18 1.582634e-18 1 -5.775326e-18 1.582634e-18 1 -2.807031e-17 -2.906681e-17 1 -2.807031e-17 -2.906681e-17 1 -2.807031e-17 -2.906681e-17 1 -2.807031e-17 -2.906681e-17 1 -2.807031e-17 -2.906681e-17 1 -2.807031e-17 -2.906681e-17 1 -2.807031e-17 -2.906681e-17 1 -2.807031e-17 -2.906681e-17 1 -2.807031e-17 -2.906681e-17 1 -2.807031e-17 -2.906681e-17 1</float_array>
                    <technique_common>
                        <accessor count="27" source="#ID18" stride="3">
                            <param name="X" type="float" />
                            <param name="Y" type="float" />
                            <param name="Z" type="float" />
                        </accessor>
                    </technique_common>
                </source>
                <vertices id="ID16">
                    <input semantic="POSITION" source="#ID14" />
                    <input semantic="NORMAL" source="#ID15" />
                </vertices>
                <triangles count="23" material="Material2">
                    <input offset="0" semantic="VERTEX" source="#ID16" />
                    <p>0 1 2 1 0 3 1 3 4 4 3 5 5 3 6 6 3 7 7 3 8 2 9 10 9 2 1 9 1 11 10 9 12 10 12 13 10 13 14 10 14 15 10 15 16 17 18 19 18 17 20 20 17 21 21 17 22 23 24 25 24 23 26 26 23 22 26 22 17</p>
                </triangles>
            </mesh>
        </geometry>
        <geometry id="ID19">
            <mesh>
                <source id="ID22">
                    <float_array id="ID25" count="291">59.05512 -43.30709 1.968504 43.30709 2.842171e-14 1.968504 43.30709 -43.30709 1.968504 59.05512 2.842171e-14 1.968504 29.52756 -43.30709 1.968504 43.30709 2.842171e-14 1.968504 29.52756 2.842171e-14 1.968504 43.30709 -43.30709 1.968504 74.80315 -43.30709 1.968504 59.05512 2.842171e-14 1.968504 59.05512 -43.30709 1.968504 59.05512 43.30709 1.968504 74.80315 43.30709 1.968504 59.05512 2.842171e-14 1.968504 43.30709 43.30709 1.968504 43.30709 2.842171e-14 1.968504 59.05512 43.30709 1.968504 29.52756 -43.30709 1.968504 0 -34.54724 1.968504 0 -43.30709 1.968504 0 -23.0315 1.968504 0 -17.27362 1.968504 29.52756 2.842171e-14 1.968504 43.30709 2.842171e-14 1.968504 29.52756 43.30709 1.968504 29.52756 2.842171e-14 1.968504 43.30709 43.30709 1.968504 74.80315 -43.30709 1.968504 87.30709 -8.253678 1.968504 74.80315 43.30709 1.968504 90.49289 -15.94488 1.968504 95.56077 -22.54947 1.968504 86.22047 2.451634e-14 1.968504 90.49289 15.94488 1.968504 95.56077 22.54947 1.968504 87.30709 8.253678 1.968504 0 -43.30709 1.968504 -29.52756 -34.54724 1.968504 -29.52756 -43.30709 1.968504 0 -34.54724 1.968504 0 -17.27362 1.968504 -9.84252 -23.0315 1.968504 0 -23.0315 1.968504 0 -34.54724 1.968504 -29.52756 -34.54724 1.968504 29.52756 2.842171e-14 1.968504 0 23.0315 1.968504 0 17.27362 1.968504 0 34.54724 1.968504 5.118018e-15 43.30709 1.968504 29.52756 43.30709 1.968504 74.80315 -43.30709 1.968504 102.1654 -27.61735 1.968504 95.56077 -22.54947 1.968504 109.8566 -30.80315 1.968504 161.4173 -43.30709 1.968504 118.1102 -31.88976 1.968504 126.3639 -30.80315 1.968504 134.0551 -27.61735 1.968504 140.6597 -22.54947 1.968504 74.80315 43.30709 1.968504 109.8566 30.80315 1.968504 161.4173 43.30709 1.968504 102.1654 27.61735 1.968504 95.56077 22.54947 1.968504 118.1102 31.88976 1.968504 126.3639 30.80315 1.968504 134.0551 27.61735 1.968504 140.6597 22.54947 1.968504 -29.52756 -43.30709 1.968504 -43.30709 2.604544e-14 1.968504 -43.30709 -43.30709 1.968504 -29.52756 2.842171e-14 1.968504 -29.52756 -34.54724 1.968504 0 34.54724 1.968504 -29.52756 43.30709 1.968504 -29.52756 34.54724 1.968504 5.118018e-15 43.30709 1.968504 -9.84252 23.0315 1.968504 0 34.54724 1.968504 -29.52756 34.54724 1.968504 0 23.0315 1.968504 0 17.27362 1.968504 161.4173 -43.30709 1.968504 145.7276 -15.94488 1.968504 140.6597 -22.54947 1.968504 148.9134 -8.253678 1.968504 150 2.842171e-14 1.968504 145.7276 15.94488 1.968504 161.4173 43.30709 1.968504 140.6597 22.54947 1.968504 148.9134 8.253678 1.968504 -29.52756 2.842171e-14 1.968504 -43.30709 43.30709 1.968504 -43.30709 2.604544e-14 1.968504 -29.52756 34.54724 1.968504 -29.52756 43.30709 1.968504</float_array>
                    <technique_common>
                        <accessor count="97" source="#ID25" stride="3">
                            <param name="X" type="float" />
                            <param name="Y" type="float" />
                            <param name="Z" type="float" />
                        </accessor>
                    </technique_common>
                </source>
                <source id="ID23">
                    <float_array id="ID26" count="291">-7.754908e-17 -2.307245e-17 1 -7.754908e-17 -2.307245e-17 1 -7.754908e-17 -2.307245e-17 1 -7.754908e-17 -2.307245e-17 1 5.639933e-17 -3.332688e-17 1 5.639933e-17 -3.332688e-17 1 5.639933e-17 -3.332688e-17 1 5.639933e-17 -3.332688e-17 1 -0 2.563606e-18 1 -0 2.563606e-18 1 -0 2.563606e-18 1 -0 2.563606e-18 1 -0 2.563606e-18 1 -4.934941e-17 2.307245e-17 1 -4.934941e-17 2.307245e-17 1 -4.934941e-17 2.307245e-17 1 -4.934941e-17 2.307245e-17 1 2.064934e-17 -3.508072e-17 1 2.064934e-17 -3.508072e-17 1 2.064934e-17 -3.508072e-17 1 2.064934e-17 -3.508072e-17 1 2.064934e-17 -3.508072e-17 1 2.064934e-17 -3.508072e-17 1 5.639933e-17 2.307245e-17 1 5.639933e-17 2.307245e-17 1 5.639933e-17 2.307245e-17 1 5.639933e-17 2.307245e-17 1 -2.298256e-17 -2.245486e-33 1 -2.298256e-17 -2.245486e-33 1 -2.298256e-17 -2.245486e-33 1 -2.298256e-17 -2.245486e-33 1 -2.298256e-17 -2.245486e-33 1 -2.298256e-17 -2.245486e-33 1 -2.298256e-17 -2.245486e-33 1 -2.298256e-17 -2.245486e-33 1 -2.298256e-17 -2.245486e-33 1 6.693375e-34 -1.520881e-16 1 6.693375e-34 -1.520881e-16 1 6.693375e-34 -1.520881e-16 1 6.693375e-34 -1.520881e-16 1 -0 -0 1 -0 -0 1 -0 -0 1 -0 -0 1 -0 -0 1 1.122017e-17 2.793217e-17 1 1.122017e-17 2.793217e-17 1 1.122017e-17 2.793217e-17 1 1.122017e-17 2.793217e-17 1 1.122017e-17 2.793217e-17 1 1.122017e-17 2.793217e-17 1 1.247056e-17 1.724217e-17 1 1.247056e-17 1.724217e-17 1 1.247056e-17 1.724217e-17 1 1.247056e-17 1.724217e-17 1 1.247056e-17 1.724217e-17 1 1.247056e-17 1.724217e-17 1 1.247056e-17 1.724217e-17 1 1.247056e-17 1.724217e-17 1 1.247056e-17 1.724217e-17 1 2.200759e-17 1.317124e-17 1 2.200759e-17 1.317124e-17 1 2.200759e-17 1.317124e-17 1 2.200759e-17 1.317124e-17 1 2.200759e-17 1.317124e-17 1 2.200759e-17 1.317124e-17 1 2.200759e-17 1.317124e-17 1 2.200759e-17 1.317124e-17 1 2.200759e-17 1.317124e-17 1 -1.179394e-16 -1.648184e-17 1 -1.179394e-16 -1.648184e-17 1 -1.179394e-16 -1.648184e-17 1 -1.179394e-16 -1.648184e-17 1 -1.179394e-16 -1.648184e-17 1 -7.519911e-18 1.774361e-16 1 -7.519911e-18 1.774361e-16 1 -7.519911e-18 1.774361e-16 1 -7.519911e-18 1.774361e-16 1 -0 -0 1 -0 -0 1 -0 -0 1 -0 -0 1 -0 -0 1 -2.872995e-17 8.882927e-18 1 -2.872995e-17 8.882927e-18 1 -2.872995e-17 8.882927e-18 1 -2.872995e-17 8.882927e-18 1 -2.872995e-17 8.882927e-18 1 -2.872995e-17 8.882927e-18 1 -2.872995e-17 8.882927e-18 1 -2.872995e-17 8.882927e-18 1 -2.872995e-17 8.882927e-18 1 -1.612792e-16 3.488546e-17 1 -1.612792e-16 3.488546e-17 1 -1.612792e-16 3.488546e-17 1 -1.612792e-16 3.488546e-17 1 -1.612792e-16 3.488546e-17 1</float_array>
                    <technique_common>
                        <accessor count="97" source="#ID26" stride="3">
                            <param name="X" type="float" />
                            <param name="Y" type="float" />
                            <param name="Z" type="float" />
                        </accessor>
                    </technique_common>
                </source>
                <vertices id="ID24">
                    <input semantic="POSITION" source="#ID22" />
                    <input semantic="NORMAL" source="#ID23" />
                </vertices>
                <triangles count="63" material="Material2">
                    <input offset="0" semantic="VERTEX" source="#ID24" />
                    <p>0 1 2 1 0 3 4 5 6 5 4 7 8 9 10 9 8 11 11 8 12 13 14 15 14 13 16 17 18 19 18 17 20 20 17 21 21 17 22 23 24 25 24 23 26 27 28 29 28 27 30 30 27 31 29 28 32 29 33 34 33 29 35 35 29 32 36 37 38 37 36 39 40 41 42 43 41 44 41 43 42 45 46 47 46 45 48 48 45 49 49 45 50 51 52 53 52 51 54 54 51 55 54 55 56 56 55 57 57 55 58 58 55 59 60 61 62 61 60 63 63 60 64 62 61 65 62 65 66 62 66 67 62 67 68 69 70 71 70 69 72 72 69 73 74 75 76 75 74 77 78 79 80 79 78 81 81 78 82 83 84 85 84 83 86 86 83 87 88 89 90 89 88 91 89 91 87 89 87 83 92 93 94 93 92 95 93 95 96</p>
                </triangles>
            </mesh>
        </geometry>
        <geometry id="ID27">
            <mesh>
                <source id="ID30">
                    <float_array id="ID33" count="24">-9.84252 -23.0315 3.937008 -29.52756 2.842171e-14 3.937008 -29.52756 -34.54724 3.937008 -29.52756 34.54724 3.937008 -9.84252 23.0315 3.937008 0 -17.27362 3.937008 0 17.27362 3.937008 29.52756 2.842171e-14 3.937008</float_array>
                    <technique_common>
                        <accessor count="8" source="#ID33" stride="3">
                            <param name="X" type="float" />
                            <param name="Y" type="float" />
                            <param name="Z" type="float" />
                        </accessor>
                    </technique_common>
                </source>
                <source id="ID31">
                    <float_array id="ID34" count="24">0 0 1 0 0 1 0 0 1 0 0 1 0 0 1 0 0 1 0 0 1 0 0 1</float_array>
                    <technique_common>
                        <accessor count="8" source="#ID34" stride="3">
                            <param name="X" type="float" />
                            <param name="Y" type="float" />
                            <param name="Z" type="float" />
                        </accessor>
                    </technique_common>
                </source>
                <vertices id="ID32">
                    <input semantic="POSITION" source="#ID30" />
                    <input semantic="NORMAL" source="#ID31" />
                </vertices>
                <triangles count="6" material="Material2">
                    <input offset="0" semantic="VERTEX" source="#ID32" />
                    <p>0 1 2 1 0 3 3 0 4 4 0 5 4 5 6 6 5 7</p>
                </triangles>
            </mesh>
        </geometry>
        <geometry id="ID35">
            <mesh>
                <source id="ID36">
                    <float_array id="ID39" count="96">-9.84252 23.0315 3.937008 0 17.27362 1.968504 -9.84252 23.0315 1.968504 0 17.27362 3.937008 -29.52756 34.54724 3.937008 -9.84252 23.0315 1.968504 -29.52756 34.54724 1.968504 -9.84252 23.0315 3.937008 0 17.27362 3.937008 29.52756 2.842171e-14 1.968504 0 17.27362 1.968504 29.52756 2.842171e-14 3.937008 -29.52756 34.54724 3.937008 -29.52756 2.842171e-14 1.968504 -29.52756 2.842171e-14 3.937008 -29.52756 34.54724 1.968504 29.52756 2.842171e-14 3.937008 0 -17.27362 1.968504 29.52756 2.842171e-14 1.968504 0 -17.27362 3.937008 -29.52756 2.842171e-14 3.937008 -29.52756 -34.54724 1.968504 -29.52756 -34.54724 3.937008 -29.52756 2.842171e-14 1.968504 0 -17.27362 3.937008 -9.84252 -23.0315 1.968504 0 -17.27362 1.968504 -9.84252 -23.0315 3.937008 -9.84252 -23.0315 3.937008 -29.52756 -34.54724 1.968504 -9.84252 -23.0315 1.968504 -29.52756 -34.54724 3.937008</float_array>
                    <technique_common>
                        <accessor count="32" source="#ID39" stride="3">
                            <param name="X" type="float" />
                            <param name="Y" type="float" />
                            <param name="Z" type="float" />
                        </accessor>
                    </technique_common>
                </source>
                <source id="ID37">
                    <float_array id="ID40" count="96">0.504944 0.8631521 0 0.504944 0.8631521 0 0.504944 0.8631521 0 0.504944 0.8631521 0 0.504944 0.8631521 0 0.504944 0.8631521 0 0.504944 0.8631521 0 0.504944 0.8631521 0 0.504944 0.8631521 0 0.504944 0.8631521 0 0.504944 0.8631521 0 0.504944 0.8631521 0 -1 -0 -0 -1 -0 -0 -1 -0 -0 -1 -0 -0 0.504944 -0.8631521 0 0.504944 -0.8631521 0 0.504944 -0.8631521 0 0.504944 -0.8631521 0 -1 1.028364e-16 0 -1 1.028364e-16 0 -1 1.028364e-16 0 -1 1.028364e-16 0 0.504944 -0.8631521 0 0.504944 -0.8631521 0 0.504944 -0.8631521 0 0.504944 -0.8631521 0 0.504944 -0.8631521 0 0.504944 -0.8631521 0 0.504944 -0.8631521 0 0.504944 -0.8631521 0</float_array>
                    <technique_common>
                        <accessor count="32" source="#ID40" stride="3">
                            <param name="X" type="float" />
                            <param name="Y" type="float" />
                            <param name="Z" type="float" />
                        </accessor>
                    </technique_common>
                </source>
                <vertices id="ID38">
                    <input semantic="POSITION" source="#ID36" />
                    <input semantic="NORMAL" source="#ID37" />
                </vertices>
                <triangles count="16" material="Material2">
                    <input offset="0" semantic="VERTEX" source="#ID38" />
                    <p>0 1 2 1 0 3 4 5 6 5 4 7 8 9 10 9 8 11 12 13 14 13 12 15 16 17 18 17 16 19 20 21 22 21 20 23 24 25 26 25 24 27 28 29 30 29 28 31</p>
                </triangles>
            </mesh>
        </geometry>
        <geometry id="ID41">
            <mesh>
                <source id="ID44">
                    <float_array id="ID47" count="96">111.6454 -1.732253 1.968504 111.6454 1.732253 1.968504 111.4173 2.760206e-14 1.968504 112.314 -3.346457 1.968504 112.314 3.346457 1.968504 113.3776 -4.732604 1.968504 113.3776 4.732604 1.968504 118.1102 2.842171e-14 1.968504 118.1102 2.842171e-14 1.968504 114.7638 5.796233 1.968504 113.3776 4.732604 1.968504 116.378 6.464858 1.968504 118.1102 6.692913 1.968504 122.8428 4.732604 1.968504 119.8425 6.464858 1.968504 121.4567 5.796233 1.968504 114.7638 -5.796233 1.968504 118.1102 2.842171e-14 1.968504 113.3776 -4.732604 1.968504 116.378 -6.464858 1.968504 118.1102 -6.692913 1.968504 119.8425 -6.464858 1.968504 122.8428 -4.732604 1.968504 121.4567 -5.796233 1.968504 122.8428 -4.732604 1.968504 122.8428 4.732604 1.968504 118.1102 2.842171e-14 1.968504 123.9065 -3.346457 1.968504 123.9065 3.346457 1.968504 124.5751 1.732253 1.968504 124.5751 -1.732253 1.968504 124.8031 2.842171e-14 1.968504</float_array>
                    <technique_common>
                        <accessor count="32" source="#ID47" stride="3">
                            <param name="X" type="float" />
                            <param name="Y" type="float" />
                            <param name="Z" type="float" />
                        </accessor>
                    </technique_common>
                </source>
                <source id="ID45">
                    <float_array id="ID48" count="96">3.369388e-17 1.534812e-33 1 3.369388e-17 1.534812e-33 1 3.369388e-17 1.534812e-33 1 3.369388e-17 1.534812e-33 1 3.369388e-17 1.534812e-33 1 3.369388e-17 1.534812e-33 1 3.369388e-17 1.534812e-33 1 3.369388e-17 1.534812e-33 1 3.886602e-17 -4.712436e-18 1 3.886602e-17 -4.712436e-18 1 3.886602e-17 -4.712436e-18 1 3.886602e-17 -4.712436e-18 1 3.886602e-17 -4.712436e-18 1 3.886602e-17 -4.712436e-18 1 3.886602e-17 -4.712436e-18 1 3.886602e-17 -4.712436e-18 1 3.886602e-17 -4.712436e-18 1 3.886602e-17 -4.712436e-18 1 3.886602e-17 -4.712436e-18 1 3.886602e-17 -4.712436e-18 1 3.886602e-17 -4.712436e-18 1 3.886602e-17 -4.712436e-18 1 3.886602e-17 -4.712436e-18 1 3.886602e-17 -4.712436e-18 1 3.369388e-17 2.750764e-32 1 3.369388e-17 2.750764e-32 1 3.369388e-17 2.750764e-32 1 3.369388e-17 2.750764e-32 1 3.369388e-17 2.750764e-32 1 3.369388e-17 2.750764e-32 1 3.369388e-17 2.750764e-32 1 3.369388e-17 2.750764e-32 1</float_array>
                    <technique_common>
                        <accessor count="32" source="#ID48" stride="3">
                            <param name="X" type="float" />
                            <param name="Y" type="float" />
                            <param name="Z" type="float" />
                        </accessor>
                    </technique_common>
                </source>
                <vertices id="ID46">
                    <input semantic="POSITION" source="#ID44" />
                    <input semantic="NORMAL" source="#ID45" />
                </vertices>
                <triangles count="24" material="Material2">
                    <input offset="0" semantic="VERTEX" source="#ID46" />
                    <p>0 1 2 1 0 3 1 3 4 4 3 5 4 5 6 6 5 7 8 9 10 9 8 11 11 8 12 12 8 13 12 13 14 14 13 15 16 17 18 17 16 19 17 19 20 17 20 21 17 21 22 22 21 23 24 25 26 25 24 27 25 27 28 28 27 29 29 27 30 29 30 31</p>
                </triangles>
            </mesh>
        </geometry>
        <geometry id="ID49">
            <mesh>
                <source id="ID50">
                    <float_array id="ID53" count="168">103.9124 -14.19781 1.968504 111.6454 -1.732253 1.968504 111.4173 2.760206e-14 1.968504 112.314 -3.346457 1.968504 113.3776 -4.732604 1.968504 98.71566 -5.19676 1.968504 98.71566 5.19676 1.968504 98.0315 2.596277e-14 1.968504 100.7215 -10.03937 1.968504 100.7215 10.03937 1.968504 103.9124 14.19781 1.968504 112.314 3.346457 1.968504 113.3776 4.732604 1.968504 111.6454 1.732253 1.968504 113.3776 4.732604 1.968504 108.0709 17.3887 1.968504 103.9124 14.19781 1.968504 112.9135 19.39457 1.968504 118.1102 20.07874 1.968504 114.7638 5.796233 1.968504 116.378 6.464858 1.968504 118.1102 6.692913 1.968504 119.8425 6.464858 1.968504 123.307 19.39457 1.968504 121.4567 5.796233 1.968504 122.8428 4.732604 1.968504 132.308 14.19781 1.968504 128.1496 17.3887 1.968504 108.0709 -17.3887 1.968504 113.3776 -4.732604 1.968504 103.9124 -14.19781 1.968504 112.9135 -19.39457 1.968504 118.1102 -20.07874 1.968504 114.7638 -5.796233 1.968504 116.378 -6.464858 1.968504 118.1102 -6.692913 1.968504 123.307 -19.39457 1.968504 119.8425 -6.464858 1.968504 121.4567 -5.796233 1.968504 122.8428 -4.732604 1.968504 132.308 -14.19781 1.968504 128.1496 -17.3887 1.968504 132.308 -14.19781 1.968504 123.9065 -3.346457 1.968504 122.8428 -4.732604 1.968504 124.5751 -1.732253 1.968504 124.8031 2.842171e-14 1.968504 132.308 14.19781 1.968504 135.4989 10.03937 1.968504 135.4989 -10.03937 1.968504 137.5048 -5.19676 1.968504 137.5048 5.19676 1.968504 138.189 2.842171e-14 1.968504 123.9065 3.346457 1.968504 122.8428 4.732604 1.968504 124.5751 1.732253 1.968504</float_array>
                    <technique_common>
                        <accessor count="56" source="#ID53" stride="3">
                            <param name="X" type="float" />
                            <param name="Y" type="float" />
                            <param name="Z" type="float" />
                        </accessor>
                    </technique_common>
                </source>
                <source id="ID51">
                    <float_array id="ID54" count="168">3.052588e-17 -3.045587e-18 1 3.052588e-17 -3.045587e-18 1 3.052588e-17 -3.045587e-18 1 3.052588e-17 -3.045587e-18 1 3.052588e-17 -3.045587e-18 1 3.052588e-17 -3.045587e-18 1 3.052588e-17 -3.045587e-18 1 3.052588e-17 -3.045587e-18 1 3.052588e-17 -3.045587e-18 1 3.052588e-17 -3.045587e-18 1 3.052588e-17 -3.045587e-18 1 3.052588e-17 -3.045587e-18 1 3.052588e-17 -3.045587e-18 1 3.052588e-17 -3.045587e-18 1 3.182831e-17 -3.341255e-18 1 3.182831e-17 -3.341255e-18 1 3.182831e-17 -3.341255e-18 1 3.182831e-17 -3.341255e-18 1 3.182831e-17 -3.341255e-18 1 3.182831e-17 -3.341255e-18 1 3.182831e-17 -3.341255e-18 1 3.182831e-17 -3.341255e-18 1 3.182831e-17 -3.341255e-18 1 3.182831e-17 -3.341255e-18 1 3.182831e-17 -3.341255e-18 1 3.182831e-17 -3.341255e-18 1 3.182831e-17 -3.341255e-18 1 3.182831e-17 -3.341255e-18 1 3.182831e-17 -3.341255e-18 1 3.182831e-17 -3.341255e-18 1 3.182831e-17 -3.341255e-18 1 3.182831e-17 -3.341255e-18 1 3.182831e-17 -3.341255e-18 1 3.182831e-17 -3.341255e-18 1 3.182831e-17 -3.341255e-18 1 3.182831e-17 -3.341255e-18 1 3.182831e-17 -3.341255e-18 1 3.182831e-17 -3.341255e-18 1 3.182831e-17 -3.341255e-18 1 3.182831e-17 -3.341255e-18 1 3.182831e-17 -3.341255e-18 1 3.182831e-17 -3.341255e-18 1 3.052588e-17 -3.045587e-18 1 3.052588e-17 -3.045587e-18 1 3.052588e-17 -3.045587e-18 1 3.052588e-17 -3.045587e-18 1 3.052588e-17 -3.045587e-18 1 3.052588e-17 -3.045587e-18 1 3.052588e-17 -3.045587e-18 1 3.052588e-17 -3.045587e-18 1 3.052588e-17 -3.045587e-18 1 3.052588e-17 -3.045587e-18 1 3.052588e-17 -3.045587e-18 1 3.052588e-17 -3.045587e-18 1 3.052588e-17 -3.045587e-18 1 3.052588e-17 -3.045587e-18 1</float_array>
                    <technique_common>
                        <accessor count="56" source="#ID54" stride="3">
                            <param name="X" type="float" />
                            <param name="Y" type="float" />
                            <param name="Z" type="float" />
                        </accessor>
                    </technique_common>
                </source>
                <vertices id="ID52">
                    <input semantic="POSITION" source="#ID50" />
                    <input semantic="NORMAL" source="#ID51" />
                </vertices>
                <triangles count="48" material="Material2">
                    <input offset="0" semantic="VERTEX" source="#ID52" />
                    <p>0 1 2 1 0 3 3 0 4 5 6 7 6 5 8 6 8 9 9 8 10 10 8 0 10 0 11 10 11 12 11 0 13 13 0 2 14 15 16 15 14 17 17 14 18 18 14 19 18 19 20 18 20 21 18 21 22 18 22 23 23 22 24 23 24 25 23 25 26 23 26 27 28 29 30 29 28 31 29 31 32 29 32 33 33 32 34 34 32 35 35 32 36 35 36 37 37 36 38 38 36 39 39 36 40 40 36 41 42 43 44 43 42 45 45 42 46 46 42 47 47 42 48 48 42 49 48 49 50 48 50 51 51 50 52 53 47 54 47 53 55 47 55 46</p>
                </triangles>
            </mesh>
        </geometry>
        <geometry id="ID55">
            <mesh>
                <source id="ID58">
                    <float_array id="ID61" count="168">95.56077 -22.54947 1.968504 98.71566 -5.19676 1.968504 98.0315 2.596277e-14 1.968504 100.7215 -10.03937 1.968504 103.9124 -14.19781 1.968504 87.30709 -8.253678 1.968504 87.30709 8.253678 1.968504 86.22047 2.451634e-14 1.968504 90.49289 15.94488 1.968504 90.49289 -15.94488 1.968504 95.56077 22.54947 1.968504 98.71566 5.19676 1.968504 100.7215 10.03937 1.968504 103.9124 14.19781 1.968504 103.9124 14.19781 1.968504 102.1654 27.61735 1.968504 95.56077 22.54947 1.968504 109.8566 30.80315 1.968504 108.0709 17.3887 1.968504 112.9135 19.39457 1.968504 118.1102 31.88976 1.968504 118.1102 20.07874 1.968504 123.307 19.39457 1.968504 126.3639 30.80315 1.968504 128.1496 17.3887 1.968504 134.0551 27.61735 1.968504 132.308 14.19781 1.968504 140.6597 22.54947 1.968504 102.1654 -27.61735 1.968504 103.9124 -14.19781 1.968504 95.56077 -22.54947 1.968504 109.8566 -30.80315 1.968504 108.0709 -17.3887 1.968504 112.9135 -19.39457 1.968504 118.1102 -31.88976 1.968504 118.1102 -20.07874 1.968504 126.3639 -30.80315 1.968504 123.307 -19.39457 1.968504 128.1496 -17.3887 1.968504 134.0551 -27.61735 1.968504 132.308 -14.19781 1.968504 140.6597 -22.54947 1.968504 140.6597 -22.54947 1.968504 135.4989 -10.03937 1.968504 132.308 -14.19781 1.968504 137.5048 -5.19676 1.968504 138.189 2.842171e-14 1.968504 135.4989 10.03937 1.968504 140.6597 22.54947 1.968504 132.308 14.19781 1.968504 137.5048 5.19676 1.968504 145.7276 -15.94488 1.968504 145.7276 15.94488 1.968504 148.9134 -8.253678 1.968504 148.9134 8.253678 1.968504 150 2.842171e-14 1.968504</float_array>
                    <technique_common>
                        <accessor count="56" source="#ID61" stride="3">
                            <param name="X" type="float" />
                            <param name="Y" type="float" />
                            <param name="Z" type="float" />
                        </accessor>
                    </technique_common>
                </source>
                <source id="ID59">
                    <float_array id="ID62" count="168">3.760765e-17 -9.606795e-19 1 3.760765e-17 -9.606795e-19 1 3.760765e-17 -9.606795e-19 1 3.760765e-17 -9.606795e-19 1 3.760765e-17 -9.606795e-19 1 3.760765e-17 -9.606795e-19 1 3.760765e-17 -9.606795e-19 1 3.760765e-17 -9.606795e-19 1 3.760765e-17 -9.606795e-19 1 3.760765e-17 -9.606795e-19 1 3.760765e-17 -9.606795e-19 1 3.760765e-17 -9.606795e-19 1 3.760765e-17 -9.606795e-19 1 3.760765e-17 -9.606795e-19 1 3.528457e-17 1.478079e-18 1 3.528457e-17 1.478079e-18 1 3.528457e-17 1.478079e-18 1 3.528457e-17 1.478079e-18 1 3.528457e-17 1.478079e-18 1 3.528457e-17 1.478079e-18 1 3.528457e-17 1.478079e-18 1 3.528457e-17 1.478079e-18 1 3.528457e-17 1.478079e-18 1 3.528457e-17 1.478079e-18 1 3.528457e-17 1.478079e-18 1 3.528457e-17 1.478079e-18 1 3.528457e-17 1.478079e-18 1 3.528457e-17 1.478079e-18 1 3.375878e-17 3.751988e-18 1 3.375878e-17 3.751988e-18 1 3.375878e-17 3.751988e-18 1 3.375878e-17 3.751988e-18 1 3.375878e-17 3.751988e-18 1 3.375878e-17 3.751988e-18 1 3.375878e-17 3.751988e-18 1 3.375878e-17 3.751988e-18 1 3.375878e-17 3.751988e-18 1 3.375878e-17 3.751988e-18 1 3.375878e-17 3.751988e-18 1 3.375878e-17 3.751988e-18 1 3.375878e-17 3.751988e-18 1 3.375878e-17 3.751988e-18 1 3.760765e-17 -9.606795e-19 1 3.760765e-17 -9.606795e-19 1 3.760765e-17 -9.606795e-19 1 3.760765e-17 -9.606795e-19 1 3.760765e-17 -9.606795e-19 1 3.760765e-17 -9.606795e-19 1 3.760765e-17 -9.606795e-19 1 3.760765e-17 -9.606795e-19 1 3.760765e-17 -9.606795e-19 1 3.760765e-17 -9.606795e-19 1 3.760765e-17 -9.606795e-19 1 3.760765e-17 -9.606795e-19 1 3.760765e-17 -9.606795e-19 1 3.760765e-17 -9.606795e-19 1</float_array>
                    <technique_common>
                        <accessor count="56" source="#ID62" stride="3">
                            <param name="X" type="float" />
                            <param name="Y" type="float" />
                            <param name="Z" type="float" />
                        </accessor>
                    </technique_common>
                </source>
                <vertices id="ID60">
                    <input semantic="POSITION" source="#ID58" />
                    <input semantic="NORMAL" source="#ID59" />
                </vertices>
                <triangles count="48" material="Material2">
                    <input offset="0" semantic="VERTEX" source="#ID60" />
                    <p>0 1 2 1 0 3 3 0 4 5 6 7 6 5 8 8 5 9 8 9 0 8 0 10 10 0 2 10 2 11 10 11 12 10 12 13 14 15 16 15 14 17 17 14 18 17 18 19 17 19 20 20 19 21 20 21 22 20 22 23 23 22 24 23 24 25 25 24 26 25 26 27 28 29 30 29 28 31 29 31 32 32 31 33 33 31 34 33 34 35 35 34 36 35 36 37 37 36 38 38 36 39 38 39 40 40 39 41 42 43 44 43 42 45 45 42 46 47 48 49 48 47 50 48 50 46 48 46 42 48 42 51 48 51 52 52 51 53 52 53 54 54 53 55</p>
                </triangles>
            </mesh>
        </geometry>
    </library_geometries>
    <library_materials>
        <material id="ID5" name="material">
            <instance_effect url="#ID4" />
        </material>
        <material id="ID12" name="Color_E02">
            <instance_effect url="#ID13" />
        </material>
        <material id="ID20" name="Color_D07">
            <instance_effect url="#ID21" />
        </material>
        <material id="ID28" name="Color_G04">
            <instance_effect url="#ID29" />
        </material>
        <material id="ID42" name="Color_M09">
            <instance_effect url="#ID43" />
        </material>
        <material id="ID56" name="Color_E05">
            <instance_effect url="#ID57" />
        </material>
    </library_materials>
    <library_effects>
        <effect id="ID4">
            <profile_COMMON>
                <technique sid="COMMON">
                    <lambert>
                        <diffuse>
                            <color>1 1 1 1</color>
                        </diffuse>
                    </lambert>
                </technique>
            </profile_COMMON>
        </effect>
        <effect id="ID13">
            <profile_COMMON>
                <technique sid="COMMON">
                    <lambert>
                        <diffuse>
                            <color>1 1 0.6 1</color>
                        </diffuse>
                    </lambert>
                </technique>
            </profile_COMMON>
        </effect>
        <effect id="ID21">
            <profile_COMMON>
                <technique sid="COMMON">
                    <lambert>
                        <diffuse>
                            <color>0.6 0.4470588 0 1</color>
                        </diffuse>
                    </lambert>
                </technique>
            </profile_COMMON>
        </effect>
        <effect id="ID29">
            <profile_COMMON>
                <technique sid="COMMON">
                    <lambert>
                        <diffuse>
                            <color>0.1960784 1 0.1960784 1</color>
                        </diffuse>
                    </lambert>
                </technique>
            </profile_COMMON>
        </effect>
        <effect id="ID43">
            <profile_COMMON>
                <technique sid="COMMON">
                    <lambert>
                        <diffuse>
                            <color>0 0 0 1</color>
                        </diffuse>
                    </lambert>
                </technique>
            </profile_COMMON>
        </effect>
        <effect id="ID57">
            <profile_COMMON>
                <technique sid="COMMON">
                    <lambert>
                        <diffuse>
                            <color>1 1 0 1</color>
                        </diffuse>
                    </lambert>
                </technique>
            </profile_COMMON>
        </effect>
    </library_effects>
    <scene>
        <instance_visual_scene url="#ID2" />
    </scene>
</COLLADA>
